{
  "users": [
    {
      "id": 1,
      "fName": "Jane",
      "lName": "Doe",
      "username": "jDoe"
    },
    {
      "id": 2,
      "fName": "example",
      "lName": "Doe",
      "username": "example"
    },
    {
      "id": 3,
      "fName": "Test",
      "lName": "User",
      "username": "testUser"
    },
    {
      "id": 4,
      "fName": "Test",
      "lName": "User",
      "username": "testUser"
    },
    {
      "id": 5,
      "fName": "Test",
      "lName": "User",
      "username": "testUser"
    }
  ]
}